{
  "msbuild": {
     "enabled": true,
     "ToolsVersion": null,
     "VisualStudioVersion": null,
     "Configuration": null,
     "Platform": null,
     "EnablePackageAutoRestore" : false,
     "MSBuildExtensionsPath": null,
     "TargetFrameworkRootPath" : null,
     "MSBuildSDKsPath": null,
     "RoslynTargetsPath" : null,
     "CscToolPath": null,
     "CscToolExe": null
  },
  "dotnet": {
    "enabled": true,
    "enablePackageRestore": false
  }
}